software/skiptrap/skiptrap.log
	********* Init Program *********
	********* Wipe memory to 0 *********
	********* Read program *********
	********* Using inst file: /tmp/c910_paJcLE/inst.pat *********
	********* Using data file: /tmp/c910_paJcLE/data.pat *********
	********* Load program to memory *********
[COMMIT] PC: 0x0000000000
[C910][X-WB] pc=0x0000000000 rd=x5 preg=32 data=0x0000000000000000
[COMMIT] PC: 0x0000000004
[C910][X-WB] pc=0x0000000004 rd=x6 preg=5 data=0x0000000000004000
[COMMIT] PC: 0x0000000006
[C910][X-WB] pc=0x0000000006 rd=x6 preg=95 data=0x0000000000003fff
[COMMIT] PC: 0x0000000008
[C910][X-WB] pc=0x0000000008 rd=x5 preg=33 data=0x0000000000003fff
[COMMIT] PC: 0x000000000c
[COMMIT] PC: 0x0000000010
[C910][X-WB] pc=0x0000000010 rd=x5 preg=5 data=0x0000000000000010
[COMMIT] PC: 0x0000000014
[C910][X-WB] pc=0x0000000014 rd=x5 preg=94 data=0x00000000000001c4
[COMMIT] PC: 0x0000000018
[COMMIT] PC: 0x000000001c
[C910][X-WB] pc=0x000000001c rd=x5 preg=5 data=0x0000000a00001900
[COMMIT] PC: 0x0000000020
[C910][X-WB] pc=0x0000000020 rd=x6 preg=6 data=0x0000000000003000
[COMMIT] PC: 0x0000000022
[C910][X-WB] pc=0x0000000022 rd=x5 preg=94 data=0x0000000a00003900
[COMMIT] PC: 0x0000000026
[COMMIT] PC: 0x000000002a
[COMMIT] PC: 0x000000002e
[COMMIT] PC: 0x0000000030
[COMMIT] PC: 0x0000000034
[C910][X-WB] pc=0x0000000030 rd=x15 preg=5 data=0x00000000000000a5
[C910][X-WB] pc=0x0000000034 rd=x16 preg=95 data=0x0000000000449000
[COMMIT] PC: 0x0000000038
[C910][X-WB] pc=0x0000000038 rd=x16 preg=32 data=0x00000000004488cd
[COMMIT] PC: 0x000000003c
[C910][X-WB] pc=0x000000003c rd=x16 preg=34 data=0x0000001122334000
[COMMIT] PC: 0x000000003e
[C910][X-WB] pc=0x000000003e rd=x16 preg=36 data=0x0000001122334455
[COMMIT] PC: 0x0000000042
[C910][X-WB] pc=0x0000000042 rd=x16 preg=93 data=0x0001122334455000
[COMMIT] PC: 0x0000000044
[C910][X-WB] pc=0x0000000044 rd=x16 preg=35 data=0x0001122334455667
[COMMIT] PC: 0x0000000048
[C910][X-WB] pc=0x0000000048 rd=x16 preg=15 data=0x1122334455667000
[COMMIT] PC: 0x000000004a
[C910][X-WB] pc=0x000000004a rd=x16 preg=95 data=0x1122334455667788
[COMMIT] PC: 0x000000004e
[C910][X-WB] pc=0x000000004e rd=x17 preg=32 data=0xfffffffffff6e000
[COMMIT] PC: 0x0000000052
[C910][X-WB] pc=0x0000000052 rd=x17 preg=92 data=0xfffffffffff6e5d5
[COMMIT] PC: 0x0000000056
[C910][X-WB] pc=0x0000000056 rd=x17 preg=16 data=0xffffffff6e5d5000
[COMMIT] PC: 0x0000000058
[C910][X-WB] pc=0x0000000058 rd=x17 preg=15 data=0xffffffff6e5d4c3b
[COMMIT] PC: 0x000000005c
[C910][X-WB] pc=0x000000005c rd=x17 preg=93 data=0xffffedcba9876000
[COMMIT] PC: 0x000000005e
[C910][X-WB] pc=0x000000005e rd=x17 preg=35 data=0xffffedcba9876543
[COMMIT] PC: 0x0000000062
[C910][X-WB] pc=0x0000000062 rd=x17 preg=91 data=0xfedcba9876543000
[COMMIT] PC: 0x0000000064
[C910][X-WB] pc=0x0000000064 rd=x17 preg=34 data=0xfedcba9876543210
[COMMIT] PC: 0x0000000068
[COMMIT] PC: 0x000000006c
[C910][X-WB] pc=0x0000000068 rd=x8 preg=15 data=0x000000000000014a
[C910][X-WB] pc=0x000000006c rd=x9 preg=92 data=0x1122334455667788
[COMMIT] PC: 0x000000006e
[COMMIT] PC: 0x0000000072
[C910][X-WB] pc=0x000000006e rd=x18 preg=17 data=0xfedcba9876543211
[C910][X-WB] pc=0x0000000072 rd=x9 preg=90 data=0x0000000001111000
[COMMIT] PC: 0x0000000076
[C910][X-WB] pc=0x0000000076 rd=x9 preg=16 data=0x0000000001111111
[COMMIT] PC: 0x000000007a
[C910][X-WB] pc=0x000000007a rd=x9 preg=8 data=0x0000001111111000
[COMMIT] PC: 0x000000007c
[C910][X-WB] pc=0x000000007c rd=x9 preg=93 data=0x0000001111111111
[COMMIT] PC: 0x0000000080
[C910][X-WB] pc=0x0000000080 rd=x9 preg=32 data=0x0001111111111000
[COMMIT] PC: 0x0000000082
[C910][X-WB] pc=0x0000000082 rd=x9 preg=91 data=0x0001111111111111
[COMMIT] PC: 0x0000000086
[C910][X-WB] pc=0x0000000086 rd=x9 preg=9 data=0x1111111111111000
[COMMIT] PC: 0x0000000088
[COMMIT] PC: 0x000000008c
[C910][X-WB] pc=0x0000000088 rd=x9 preg=8 data=0x1111111111111111
[C910][X-WB] pc=0x000000008c rd=x18 preg=92 data=0x0000000001111000
[COMMIT] PC: 0x0000000090
[C910][X-WB] pc=0x0000000090 rd=x18 preg=18 data=0x0000000001111111
[COMMIT] PC: 0x0000000094
[C910][X-WB] pc=0x0000000094 rd=x18 preg=90 data=0x0000001111111000
[COMMIT] PC: 0x0000000096
[C910][X-WB] pc=0x0000000096 rd=x18 preg=16 data=0x0000001111111111
[COMMIT] PC: 0x000000009a
[C910][X-WB] pc=0x000000009a rd=x18 preg=9 data=0x0001111111111000
[COMMIT] PC: 0x000000009c
[C910][X-WB] pc=0x000000009c rd=x18 preg=93 data=0x0001111111111111
[COMMIT] PC: 0x00000000a0
[C910][X-WB] pc=0x00000000a0 rd=x18 preg=32 data=0x2222222222222000
[COMMIT] PC: 0x00000000a2
[C910][X-WB] pc=0x00000000a2 rd=x18 preg=91 data=0x2222222222222222
[COMMIT] PC: 0x00000000a6
[C910][X-WB] pc=0x00000000a6 rd=x19 preg=17 data=0x3333333333333333
[COMMIT] PC: 0x00000000aa
[C910][X-WB] pc=0x00000000aa rd=x5 preg=9 data=0x0000000000000218
[COMMIT] PC: 0x00000000ae
[COMMIT] PC: 0x00000000b2
[COMMIT] PC: 0x00000000b6
[COMMIT] PC: 0x00000000ba
[COMMIT] PC: 0x00000000be
[COMMIT] PC: 0x00000000c2
[C910][X-WB] pc=0x00000000be rd=x29 preg=18 data=0x0000000000000258
[C910][X-WB] pc=0x00000000c2 rd=x30 preg=92 data=0x0000000000092000
[COMMIT] PC: 0x00000000c6
[C910][X-WB] pc=0x00000000c6 rd=x30 preg=16 data=0x0000000000091a2b
[COMMIT] PC: 0x00000000ca
[C910][X-WB] pc=0x00000000ca rd=x30 preg=19 data=0x0000000091a2b000
[COMMIT] PC: 0x00000000cc
[C910][X-WB] pc=0x00000000cc rd=x30 preg=94 data=0x0000000091a2b3c5
[COMMIT] PC: 0x00000000d0
[C910][X-WB] pc=0x00000000d0 rd=x30 preg=35 data=0x000012345678a000
[COMMIT] PC: 0x00000000d2
[C910][X-WB] pc=0x00000000d2 rd=x30 preg=93 data=0x0000123456789abd
[COMMIT] PC: 0x00000000d6
[C910][X-WB] pc=0x00000000d6 rd=x30 preg=32 data=0x0123456789abd000
[COMMIT] PC: 0x00000000d8
[C910][X-WB] pc=0x00000000d8 rd=x30 preg=16 data=0x0123456789abcdef
[COMMIT] PC: 0x00000000dc
[COMMIT] PC: 0x00000000e0
[C910][X-WB] pc=0x00000000e0 rd=x31 preg=29 data=0x0000000000008000
[COMMIT] PC: 0x00000000e2
[C910][X-WB] pc=0x00000000e2 rd=x31 preg=92 data=0x0000000000007f77
[COMMIT] PC: 0x00000000e6
[C910][X-WB] pc=0x00000000e6 rd=x31 preg=19 data=0x00000000feee0000
[COMMIT] PC: 0x00000000e8
[C910][X-WB] pc=0x00000000e8 rd=x31 preg=30 data=0x00000000feedface
[COMMIT] PC: 0x00000000ec
[COMMIT] PC: 0x00000000f0
[C910][X-WB] pc=0x00000000f0 rd=x28 preg=35 data=0x0000000000005000
[COMMIT] PC: 0x00000000f2
[C910][X-WB] pc=0x00000000f2 rd=x28 preg=94 data=0x00000000000055aa
[COMMIT] PC: 0x00000000f6
[COMMIT] PC: 0x00000000fa
[C910][X-WB] pc=0x00000000fa rd=x28 preg=19 data=0x000000000000007d
[COMMIT] PC: 0x00000000fe
[COMMIT] PC: 0x0000000102
[COMMIT] PC: 0x0000000106
[C910][X-WB] pc=0x0000000102 rd=x28 preg=93 data=0x00000000000003ff
[C910][X-WB] pc=0x0000000106 rd=x28 preg=32 data=0x3ff0000000000000
[COMMIT] PC: 0x0000000108
[COMMIT] PC: 0x000000010c
[C910][F-WB] pc=0x0000000108 rd=f0 vreg=32 data=0x3ff0000000000000
[C910][F-WB] pc=0x000000010c rd=f1 vreg=63 data=0x4000000000000000
[COMMIT] PC: 0x0000000110
[C910][X-WB] pc=0x0000000110 rd=x28 preg=29 data=0x0000000000001000
[COMMIT] PC: 0x0000000112
[C910][X-WB] pc=0x0000000112 rd=x28 preg=94 data=0x0000000000000801
[COMMIT] PC: 0x0000000116
[C910][X-WB] pc=0x0000000116 rd=x28 preg=31 data=0x4008000000000000
[COMMIT] PC: 0x0000000118
[COMMIT] PC: 0x000000011c
[C910][F-WB] pc=0x0000000118 rd=f2 vreg=34 data=0x4008000000000000
[C910][F-WB] pc=0x000000011c rd=f3 vreg=61 data=0x4018000000000000
[COMMIT] PC: 0x0000000120
[COMMIT] PC: 0x0000000124
[COMMIT] PC: 0x0000000128
[C910][X-WB] pc=0x0000000128 rd=x8 preg=28 data=0x0000000000000000
[COMMIT] PC: 0x000000012a (EXCEPTION)
[COMMIT] PC: 0x00000001c4
[C910][X-WB] pc=0x00000001c4 rd=x5 preg=15 data=0x000000000000012a
[COMMIT] PC: 0x00000001c8
[C910][X-WB] pc=0x00000001c8 rd=x6 preg=9 data=0x0000000000000002
[COMMIT] PC: 0x00000001cc
[C910][X-WB] pc=0x00000001cc rd=x29 preg=6 data=0x0000000000000000
[COMMIT] PC: 0x00000001d0
[C910][X-WB] pc=0x00000001d0 rd=x30 preg=18 data=0x0000000000000004
[COMMIT] PC: 0x00000001d4
[COMMIT] PC: 0x00000001d8
[C910][X-WB] pc=0x00000001d4 rd=x6 preg=94 data=0x0000000000000002
[C910][X-WB] pc=0x00000001d8 rd=x7 preg=19 data=0x0000000000000002
[COMMIT] PC: 0x00000001da
[C910][X-WB] pc=0x00000001da rd=x28 preg=32 data=0x0000000000000002
[COMMIT] PC: 0x00000001dc
[COMMIT] PC: 0x00000001f0
[COMMIT] PC: 0x00000001f4
[C910][X-WB] pc=0x00000001f0 rd=x29 preg=7 data=0x0000000000000000
[C910][X-WB] pc=0x00000001f4 rd=x28 preg=93 data=0x0000000000000003
[COMMIT] PC: 0x00000001f6
[COMMIT] PC: 0x00000001fe
[C910][X-WB] pc=0x00000001fe rd=x7 preg=6 data=0x0000000000000002
[COMMIT] PC: 0x0000000200
[C910][X-WB] pc=0x0000000200 rd=x5 preg=29 data=0x000000000000012c
[COMMIT] PC: 0x0000000202
[COMMIT] PC: 0x0000000206
[COMMIT] PC: 0x000000020a
[COMMIT] PC: 0x000000020e
[COMMIT] PC: 0x000000012c (EXCEPTION)
[COMMIT] PC: 0x00000001c4
[C910][X-WB] pc=0x00000001c4 rd=x5 preg=9 data=0x000000000000012c
[COMMIT] PC: 0x00000001c8
[C910][X-WB] pc=0x00000001c8 rd=x6 preg=15 data=0x0000000000000002
[COMMIT] PC: 0x00000001cc
[C910][X-WB] pc=0x00000001cc rd=x29 preg=16 data=0x0000000000000000
[COMMIT] PC: 0x00000001d0
[C910][X-WB] pc=0x00000001d0 rd=x30 preg=7 data=0x0000000000000004
[COMMIT] PC: 0x00000001d4
[COMMIT] PC: 0x00000001d8
[C910][X-WB] pc=0x00000001d4 rd=x6 preg=94 data=0x0000000000000002
[C910][X-WB] pc=0x00000001d8 rd=x7 preg=19 data=0x0000000000000002
[COMMIT] PC: 0x00000001da
[C910][X-WB] pc=0x00000001da rd=x28 preg=31 data=0x0000000000000002
[COMMIT] PC: 0x00000001dc
[COMMIT] PC: 0x00000001f0
[COMMIT] PC: 0x00000001f4
[C910][X-WB] pc=0x00000001f0 rd=x29 preg=6 data=0x0000000000000000
[C910][X-WB] pc=0x00000001f4 rd=x28 preg=93 data=0x0000000000000003
[COMMIT] PC: 0x00000001f6
[COMMIT] PC: 0x00000001fe
[C910][X-WB] pc=0x00000001fe rd=x7 preg=15 data=0x0000000000000002
[COMMIT] PC: 0x0000000200
[C910][X-WB] pc=0x0000000200 rd=x5 preg=29 data=0x000000000000012e
[COMMIT] PC: 0x0000000202
[COMMIT] PC: 0x0000000206
[COMMIT] PC: 0x000000020a
[COMMIT] PC: 0x000000020e
[COMMIT] PC: 0x000000012e
[C910][X-WB] pc=0x000000012e rd=x8 preg=9 data=0x0000000000000001
[COMMIT] PC: 0x0000000130 (EXCEPTION)
[COMMIT] PC: 0x00000001c4
[C910][X-WB] pc=0x00000001c4 rd=x5 preg=16 data=0x0000000000000130
[COMMIT] PC: 0x00000001c8
[C910][X-WB] pc=0x00000001c8 rd=x6 preg=18 data=0x0000000000000002
[COMMIT] PC: 0x00000001cc
[C910][X-WB] pc=0x00000001cc rd=x29 preg=19 data=0x0000000000000000
[COMMIT] PC: 0x00000001d0
[C910][X-WB] pc=0x00000001d0 rd=x30 preg=6 data=0x0000000000000004
[COMMIT] PC: 0x00000001d4
[COMMIT] PC: 0x00000001d8
[C910][X-WB] pc=0x00000001d4 rd=x6 preg=94 data=0x0000000000000002
[C910][X-WB] pc=0x00000001d8 rd=x7 preg=28 data=0x0000000000000002
[COMMIT] PC: 0x00000001da
[C910][X-WB] pc=0x00000001da rd=x28 preg=31 data=0x0000000000000002
[COMMIT] PC: 0x00000001dc
[COMMIT] PC: 0x00000001f0
[COMMIT] PC: 0x00000001f4
[C910][X-WB] pc=0x00000001f0 rd=x29 preg=7 data=0x0000000000000000
[C910][X-WB] pc=0x00000001f4 rd=x28 preg=93 data=0x0000000000000003
[COMMIT] PC: 0x00000001f6
[COMMIT] PC: 0x00000001fe
[C910][X-WB] pc=0x00000001fe rd=x7 preg=15 data=0x0000000000000002
[COMMIT] PC: 0x0000000200
[C910][X-WB] pc=0x0000000200 rd=x5 preg=29 data=0x0000000000000132
[COMMIT] PC: 0x0000000202
[COMMIT] PC: 0x0000000206
[COMMIT] PC: 0x000000020a
[COMMIT] PC: 0x000000020e
[COMMIT] PC: 0x0000000132
[COMMIT] PC: 0x0000000134
[C910][X-WB] pc=0x0000000132 rd=x8 preg=16 data=0x0000000000000002
[C910][X-WB] pc=0x0000000134 rd=x7 preg=92 data=0x0000000000000002
[COMMIT] PC: 0x0000000136
[COMMIT] PC: 0x000000013a
[C910][X-WB] pc=0x000000013a rd=x10 preg=28 data=0xfffffffffdeae000
[COMMIT] PC: 0x000000013e
[C910][X-WB] pc=0x000000013e rd=x10 preg=31 data=0xfffffffffdeadbef
[COMMIT] PC: 0x0000000142
[C910][X-WB] pc=0x0000000142 rd=x10 preg=90 data=0xffffffdeadbef000
[COMMIT] PC: 0x0000000144
[C910][X-WB] pc=0x0000000144 rd=x10 preg=18 data=0xffffffdeadbeefcb
[COMMIT] PC: 0x0000000148
[C910][X-WB] pc=0x0000000148 rd=x10 preg=9 data=0xfffdeadbeefcb000
[COMMIT] PC: 0x000000014a
[C910][X-WB] pc=0x000000014a rd=x10 preg=89 data=0xfffdeadbeefcafef
[COMMIT] PC: 0x000000014c
[C910][X-WB] pc=0x000000014c rd=x10 preg=10 data=0xdeadbeefcafef000
[COMMIT] PC: 0x000000014e
[C910][X-WB] pc=0x000000014e rd=x10 preg=15 data=0xdeadbeefcafef00d
[COMMIT] PC: 0x0000000150
[COMMIT] PC: 0x0000000154
[C910][X-WB] pc=0x0000000154 rd=x11 preg=88 data=0x000000000000007f
[COMMIT] PC: 0x0000000158
[COMMIT] PC: 0x000000015c
[C910][X-WB] pc=0x000000015c rd=x30 preg=33 data=0x0000000000000218
[COMMIT] PC: 0x0000000160
[COMMIT] PC: 0x0000000164
[C910][X-WB] pc=0x0000000160 rd=x30 preg=9 data=0x0000000000000248
[C910][X-WB] pc=0x0000000164 rd=x31 preg=90 data=0x0000000000000010
[COMMIT] PC: 0x0000000166
[COMMIT] PC: 0x000000016a
[C910][X-WB] pc=0x000000016a rd=x7 preg=6 data=0x0000000000000005
[C910][M-WB] pc=0x00000000aa addr=0x0000000218 data=0x3333333333333333 strb=0xff00
[C910][M-WB] pc=0x00000000ae addr=0x0000000220 data=0x0000000000002222 strb=0xff00
[C910][M-WB] pc=0x00000000b2 addr=0x0000000222 data=0x0000000000110000 strb=0x07fc
[C910][M-WB] pc=0x00000000b6 addr=0x0000000224 data=0x3333333300000000 strb=0xfff7
[C910][M-WB] pc=0x00000000d8 addr=0x0000000258 data=0x0123456789abcdef strb=0x007f
[C910][M-WB] pc=0x00000000e8 addr=0x0000000260 data=0x00000000feedface strb=0x00ff
[C910][M-WB] pc=0x00000000f2 addr=0x0000000264 data=0x000055aa00000000 strb=0xff00
[COMMIT] PC: 0x000000016c
[COMMIT] PC: 0x000000016c
[COMMIT] PC: 0x000000016c
[COMMIT] PC: 0x0000000170
[COMMIT] PC: 0x0000000174
[ERROR][X-WB] pc=0x000000016c slot=0 MULTIPLE PST matches (2 entries), bitmap=0x020000000000000000000400, using first=10
[C910][X-WB] pc=0x000000016c rd=x28 preg=10 data=0x0000000000000010
[C910][X-WB] pc=0x0000000170 rd=x31 preg=11 data=0x0000000000247000
[C910][X-WB] pc=0x0000000174 rd=x31 preg=87 data=0x00000000002468ad
[COMMIT] PC: 0x0000000178
[COMMIT] PC: 0x000000017a
[COMMIT] PC: 0x000000017e
[C910][X-WB] pc=0x0000000178 rd=x31 preg=32 data=0x000000091a2b4000
[C910][X-WB] pc=0x000000017a rd=x31 preg=18 data=0x000000091a2b3c4d
[C910][X-WB] pc=0x000000017e rd=x31 preg=92 data=0x000091a2b3c4d000
[COMMIT] PC: 0x0000000180
[COMMIT] PC: 0x0000000184
[COMMIT] PC: 0x0000000186
[C910][X-WB] pc=0x0000000180 rd=x31 preg=30 data=0x000091a2b3c4d5e7
[C910][X-WB] pc=0x0000000184 rd=x31 preg=86 data=0x123456789abce000
[C910][X-WB] pc=0x0000000186 rd=x31 preg=28 data=0x123456789abcdef0
**********************************************
*    simulation finished successfully        *
**********************************************
*** X-WB Logging Statistics ***
  Total X-WB logs:        127
  Note: preg0 has no PST entry and cannot be tracked
  No PST match:           43
  Multiple PST matches:   1
  No WB bus hit (PRF):    0 (0.0%)
- ../logical/tb/tb_verilator.v:438: Verilog $finish
